// Jest Snapshot v1, https://goo.gl/fbAQLP

exports[`Snapshots Should show empty movie list 1`] = `
<div
  className="movie-list-contaner"
>
  <span
    className="not-found"
  >
    NO MOVIE FOUND
  </span>
</div>
`;

exports[`Snapshots Should show movie list 1`] = `
<div
  className="movie-list-contaner"
>
  <table
    className="movie-list-table table table-hover"
  >
    <tbody>
      <tr
        onClick={[Function]}
      >
        <td>
          <div
            className="h-100-p w-100-p row"
          >
            <div
              className="col-4 col-md-1"
            >
              <img
                alt=""
              />
            </div>
            <div
              className="movie-detail col-8 col-md-11 pl-1 pl-md-5 pl-lg-5 pl-xl-4 d-flex flex-column"
            >
              <span
                className="font-weight-bold"
              >
                Spider man
              </span>
              <span
                className="font-weight-light release-data"
              />
              <div />
            </div>
          </div>
        </td>
      </tr>
      <tr
        onClick={[Function]}
      >
        <td>
          <div
            className="h-100-p w-100-p row"
          >
            <div
              className="col-4 col-md-1"
            >
              <img
                alt=""
              />
            </div>
            <div
              className="movie-detail col-8 col-md-11 pl-1 pl-md-5 pl-lg-5 pl-xl-4 d-flex flex-column"
            >
              <span
                className="font-weight-bold"
              >
                Super man
              </span>
              <span
                className="font-weight-light release-data"
              />
              <div />
            </div>
          </div>
        </td>
      </tr>
    </tbody>
  </table>
</div>
`;
